﻿<?xml version="1.0" encoding="utf-8"?>
<svg version="1.1" xmlns:xlink="http://www.w3.org/1999/xlink" width="19px" height="18px" preserveAspectRatio="xMinYMid meet" viewBox="610 697  19 16" xmlns="http://www.w3.org/2000/svg">
  <path d="M 500 705.5  L 618.5 705.5  " stroke-width="1" stroke="#333333" fill="none" />
  <path d="M 617.5 711.8  L 623.5 705.5  L 617.5 699.2  L 617.5 711.8  Z " fill-rule="nonzero" fill="#333333" stroke="none" />
</svg>