﻿<?xml version="1.0" encoding="utf-8"?>
<svg version="1.1" xmlns:xlink="http://www.w3.org/1999/xlink" width="227px" height="10px" preserveAspectRatio="xMinYMid meet" viewBox="1174 676  227 8" xmlns="http://www.w3.org/2000/svg">
  <path d="M 1174 680.5  L 1391.5 680.5  " stroke-width="1" stroke="#333333" fill="none" />
  <path d="M 1390.5 686.8  L 1396.5 680.5  L 1390.5 674.2  L 1390.5 686.8  Z " fill-rule="nonzero" fill="#333333" stroke="none" />
</svg>