﻿<?xml version="1.0" encoding="utf-8"?>
<svg version="1.1" xmlns:xlink="http://www.w3.org/1999/xlink" width="10px" height="66px" preserveAspectRatio="xMidYMin meet" viewBox="3054 1015  8 66" xmlns="http://www.w3.org/2000/svg">
  <path d="M 278.5 1015  L 278.5 1076.5  L 3058.5 1076.5  L 3058.5 1020  " stroke-width="1" stroke="#333333" fill="none" />
  <path d="M 3064.8 1021  L 3058.5 1015  L 3052.2 1021  L 3064.8 1021  Z " fill-rule="nonzero" fill="#333333" stroke="none" />
</svg>