﻿<?xml version="1.0" encoding="utf-8"?>
<svg version="1.1" xmlns:xlink="http://www.w3.org/1999/xlink" width="10px" height="100px" preserveAspectRatio="xMidYMin meet" viewBox="3326 675  8 100" xmlns="http://www.w3.org/2000/svg">
  <path d="M 3128 770.5  L 3330.5 770.5  L 3330.5 680.5  L 3527.5 680.5  " stroke-width="1" stroke="#333333" fill="none" />
  <path d="M 3526.5 686.8  L 3532.5 680.5  L 3526.5 674.2  L 3526.5 686.8  Z " fill-rule="nonzero" fill="#333333" stroke="none" />
</svg>