﻿<?xml version="1.0" encoding="utf-8"?>
<svg version="1.1" xmlns:xlink="http://www.w3.org/1999/xlink" width="10px" height="818px" preserveAspectRatio="xMidYMin meet" viewBox="3400 686  8 818" xmlns="http://www.w3.org/2000/svg">
  <path d="M 3177 691.5  L 3327 691.5  A 3 3 0 0 1 3330 688.5 A 3 3 0 0 1 3333 691.5 L 3404.5 691.5  L 3404.5 1499.5  L 3293.5 1499.5  " stroke-width="1" stroke="#333333" fill="none" />
  <path d="M 3294.5 1493.2  L 3288.5 1499.5  L 3294.5 1505.8  L 3294.5 1493.2  Z " fill-rule="nonzero" fill="#333333" stroke="none" />
</svg>