﻿<?xml version="1.0" encoding="utf-8"?>
<svg version="1.1" xmlns:xlink="http://www.w3.org/1999/xlink" width="271px" height="10px" preserveAspectRatio="xMinYMid meet" viewBox="2563 1496  271 8" xmlns="http://www.w3.org/2000/svg">
  <path d="M 2563 1500.5  L 2824.5 1500.5  " stroke-width="1" stroke="#333333" fill="none" />
  <path d="M 2823.5 1506.8  L 2829.5 1500.5  L 2823.5 1494.2  L 2823.5 1506.8  Z " fill-rule="nonzero" fill="#333333" stroke="none" />
</svg>