﻿<?xml version="1.0" encoding="utf-8"?>
<svg version="1.1" xmlns:xlink="http://www.w3.org/1999/xlink" width="264px" height="10px" preserveAspectRatio="xMinYMid meet" viewBox="1851 523  264 8" xmlns="http://www.w3.org/2000/svg">
  <path d="M 1851 527.5  L 2105.5 527.5  " stroke-width="1" stroke="#333333" fill="none" />
  <path d="M 2104.5 533.8  L 2110.5 527.5  L 2104.5 521.2  L 2104.5 533.8  Z " fill-rule="nonzero" fill="#333333" stroke="none" />
</svg>