﻿<?xml version="1.0" encoding="utf-8"?>
<svg version="1.1" xmlns:xlink="http://www.w3.org/1999/xlink" width="129px" height="10px" preserveAspectRatio="xMinYMid meet" viewBox="3286 523  129 8" xmlns="http://www.w3.org/2000/svg">
  <path d="M 3286 527.5  L 3410.5 527.5  L 3410.5 1289.5  L 3533.5 1289.5  " stroke-width="1" stroke="#333333" fill="none" />
  <path d="M 3532.5 1295.8  L 3538.5 1289.5  L 3532.5 1283.2  L 3532.5 1295.8  Z " fill-rule="nonzero" fill="#333333" stroke="none" />
</svg>