﻿<?xml version="1.0" encoding="utf-8"?>
<svg version="1.1" xmlns:xlink="http://www.w3.org/1999/xlink" width="208px" height="10px" preserveAspectRatio="xMinYMid meet" viewBox="1193 1496  208 8" xmlns="http://www.w3.org/2000/svg">
  <path d="M 1193 1500.5  L 1391.5 1500.5  " stroke-width="1" stroke="#333333" fill="none" />
  <path d="M 1390.5 1506.8  L 1396.5 1500.5  L 1390.5 1494.2  L 1390.5 1506.8  Z " fill-rule="nonzero" fill="#333333" stroke="none" />
</svg>