﻿<?xml version="1.0" encoding="utf-8"?>
<svg version="1.1" xmlns:xlink="http://www.w3.org/1999/xlink" width="10px" height="182px" preserveAspectRatio="xMidYMin meet" viewBox="3054 1835  8 182" xmlns="http://www.w3.org/2000/svg">
  <path d="M 3058.5 1835  L 3058.5 2012.5  L 965.5 2012.5  L 965.5 1840  " stroke-width="1" stroke="#333333" fill="none" />
  <path d="M 971.8 1841  L 965.5 1835  L 959.2 1841  L 971.8 1841  Z " fill-rule="nonzero" fill="#333333" stroke="none" />
</svg>