﻿<?xml version="1.0" encoding="utf-8"?>
<svg version="1.1" xmlns:xlink="http://www.w3.org/1999/xlink" width="19px" height="18px" preserveAspectRatio="xMinYMid meet" viewBox="4273 519  19 16" xmlns="http://www.w3.org/2000/svg">
  <path d="M 3995 527.5  L 4281.5 527.5  " stroke-width="1" stroke="#333333" fill="none" />
  <path d="M 4280.5 533.8  L 4286.5 527.5  L 4280.5 521.2  L 4280.5 533.8  Z " fill-rule="nonzero" fill="#333333" stroke="none" />
</svg>