﻿<?xml version="1.0" encoding="utf-8"?>
<svg version="1.1" xmlns:xlink="http://www.w3.org/1999/xlink" width="191px" height="10px" preserveAspectRatio="xMinYMid meet" viewBox="5474 523  191 8" xmlns="http://www.w3.org/2000/svg">
  <path d="M 5474 527.5  L 5655.5 527.5  " stroke-width="1" stroke="#333333" fill="none" />
  <path d="M 5654.5 533.8  L 5660.5 527.5  L 5654.5 521.2  L 5654.5 533.8  Z " fill-rule="nonzero" fill="#333333" stroke="none" />
</svg>