﻿<?xml version="1.0" encoding="utf-8"?>
<svg version="1.1" xmlns:xlink="http://www.w3.org/1999/xlink" width="241px" height="10px" preserveAspectRatio="xMinYMid meet" viewBox="500 1496  241 8" xmlns="http://www.w3.org/2000/svg">
  <path d="M 500 1500.5  L 731.5 1500.5  " stroke-width="1" stroke="#333333" fill="none" />
  <path d="M 730.5 1506.8  L 736.5 1500.5  L 730.5 1494.2  L 730.5 1506.8  Z " fill-rule="nonzero" fill="#333333" stroke="none" />
</svg>